<?xml version="1.0"?>
<svg xmlns="http://www.w3.org/2000/svg" xmlns:xlink="http://www.w3.org/1999/xlink" version="1.1" id="Capa_1" x="0px" y="0px" viewBox="0 0 58 58" style="enable-background:new 0 0 58 58;" xml:space="preserve" width="512px" height="512px" class=""><g><g>
	<path d="M53,3.293H5c-2.722,0-5,2.278-5,5v33c0,2.722,2.278,5,5,5h27.681l-4.439-5.161   c-0.36-0.418-0.313-1.05,0.106-1.41c0.419-0.36,1.051-0.312,1.411,0.106l4.998,5.811L43,54.707v-8.414h2h6h2c2.722,0,5-2.278,5-5   v-33C58,5.571,55.722,3.293,53,3.293z" data-original="#26B99A" class="active-path" data-old_color="#26B99A" fill="#44B5D7"/>
</g></g> </svg>
